…
source(here("src", "get_latest_r_versions_data.R"))
release_dates <- readRDS(here("data", paste0(Sys.Date(), "_rversions.RDS")))
```

The `release_dates` data is sourced from the {rversions} package. Run
the `get_latest_r_versions_data.R` script in *src/* to get the latest
data.

``` r
release_dates
```

    ## # A tibble: 162 × 12
    ##    major_version minor_version version date       minor_release_start
    ##    <chr>         <chr>         <chr>   <date>     <date>             
    ##  1 R 0.0         R 0.0         0.0     1995-06-20 1995-06-20         
    ##  2 R 0.1         R 0.1         0.1     1996-02-12 1996-02-12         
    ##  3 R 0.2         R 0.2         0.2     1996-03-14 1996-03-14         
    ##  4 R 0.3         R 0.3         0.3     1996-03-22 1996-03-22         
    ##  5 R 0.4         R 0.4         0.4     1996-04-01 1996-04-01         
    ##  6 R 0.5         R 0.5         0.5     1996-05-13 1996-05-13         
    ##  7 R 0.6         R 0.6         0.6     1996-05-17 1996-05-17         
    ##  8 R 0.7         R 0.7         0.7     1996-05-28 1996-05-28         
    ##  9 R 0.8         R 0.8         0.8     1996-05-31 1996-05-31         
    ## 10 R 0.9         R 0.9         0.9     1996-06-07 1996-06-07         
    ## # ℹ 152 more rows
    ## # ℹ 7 more variables: minor_release_year <dbl>, patch_updates <dbl>,
    ## #   minor_release_end <date>, minor_releases <dbl>, major_release_start <date>,
    ## #   major_release_year <dbl>, major_release_end <date>
…
